{
    "codice": "FC.1.0.0",
    "release": "1.0",
    "nome": "Form Contatti Parallax",
    "descrizione": "Modulo per il form contatti, con effetto elementi parallax in background",
    "author": "Matteo",
    "releaseDate": "2017-02-15",
    "duplicabile": true,
    "assets": {
        "js": [
            "/public/lib/handlebars/dist/handlebars.min.js",
            "/node_modules/jquery-form/dist/jquery.form.min.js"
        ]
    },
    "config": [
        {
            "var": "id_sezione",
            "label": "Id sezione",
            "type": "simpleText",
            "default": "",
            "multilang": true,
            "mandatory": true
        },
        {
            "var": "titoletto",
            "label": "Titoletto",
            "type": "simpleText",
            "default": "",
            "multilang": true,
            "mandatory": true
        },
        {
            "var": "testo",
            "label": "Titoletto",
            "type": "mediumText",
            "default": "",
            "multilang": true,
            "mandatory": true
        },
        {
            "var": "testo_bottone",
            "label": "Testo Bottone",
            "type": "simpleText",
            "default": "",
            "multilang": true,
            "mandatory": true
        },
        {
            "var": "img1",
            "label": "Prima immagine con elementi a scorrimento parallax",
            "type": "backgroundImage",
            "dimensioni": "1920x1080",
            "multilang": false,
            "types": [
                "jpg",
                "jpeg",
                "png",
                "gif"
            ],
            "mandatory": false
        },
        {
            "var": "img2",
            "label": "Seconda immagine con elementi a scorrimento parallax",
            "type": "backgroundImage",
            "dimensioni": "1920x1080",
            "multilang": false,
            "types": [
                "jpg",
                "jpeg",
                "png",
                "gif"
            ],
            "mandatory": false
        },
        {
            "var": "img3",
            "label": "Terza immagine con elementi a scorrimento parallax",
            "type": "backgroundImage",
            "dimensioni": "1920x1080",
            "multilang": false,
            "types": [
                "jpg",
                "jpeg",
                "png",
                "gif"
            ],
            "mandatory": false
        }
    ]
}
