{
    "codice": "SCCTA.1.0.0",
    "release": "1.0",
    "releaseDate": "2017-03-28",
    "descrizione": "Blocco a tre steps con call to action",
    "author": "Giovanni Lenoci",
    "assets": {
        "js": [
            "/node_modules/jquery-match-height/dist/jquery.matchHeight-min.js"
        ],
        "css": [
        ]
    }
}