{
    "codice": "EPC.1.0.0",
    "release": "1.0",
    "releaseDate": "2017-06-18",
    "descrizione": "Modulo Lista Prodotti di una categoria ",
    "author": "gabricom",
    "assets": {
        "css": [
        ],
        "js": [
            "/node_modules/jquery-match-height/dist/jquery.matchHeight-min.js"
        ]
    }
}