{
    "codice": "FA.2.0.0",
    "release": "1.0",
    "releaseDate": "2017-03-25",
    "descrizione": "Mostra un elenco di allegati all'entit\u00e0 in visualizzazione",
    "author": "Giovanni Lenoci"
}