{
    "codice": "TTI.1.0.0",
    "release": "1.0",
    "releaseDate": "2017-03-01",
    "descrizione": "Blocco di testo con titolo e un'immagine",
    "author": "Giovanni Lenoci",
    "assets": {
        "css": [
            "/node_modules/aos/dist/aos.css"
        ],
        "js": [
            "/node_modules/aos/dist/aos.js",
            "/public/js/travel/aos.js"
        ]
    }
}