{
    "nome": "Immagine",
    "duplicabile": true,
    "backEnd": {
        "class": "",
        "method": ""
    },
    "config": [
        {
            "var": "immagine",
            "label": "Immagine",
            "type": "image",
            "dimensioni": "600x500",
            "types": [
                "png",
                "jpg",
                "gif",
                "jpeg"
            ],
            "multilang": false,
            "mandatory": true
        }
    ]
}