{
    "codice": "BD.1.0.0",
    "release": "1.0",
    "releaseDate": "2017-02-09",
    "duplicabile": true,
    "descrizione": "Un box con immagine su un lato, dall'altra icona con titolo e testo",
    "assets": {
        "css": [
            "/node_modules/aos/dist/aos.css"
        ],
        "js": [
            "/node_modules/aos/dist/aos.js",
            "/node_modules/jquery-match-height/dist/jquery.matchHeight-min.js",
            "/public/js/travel/aos.js"
        ]
    }
}