{
    "nome": "Testo Semplice Per Footer (Cantina menegola)",
    "duplicabile": true,
    "backEnd": {
        "class": "",
        "method": ""
    },
    "config": [
        {
            "var": "testo",
            "label": "Testo da mostrare",
            "type": "mediumText",
            "default": "",
            "multilang": false,
            "mandatory": true
        }
    ]
}
