{
    "nome": "Box Doppio Contatti",
    "duplicabile": true,
    "backEnd": {
        "class": "AppBundle\\DataFormatter\\SelettoreDateFormatter",
        "method": "getData"
    },
    "config": [
        {
            "var": "titolo",
            "label": "Titolo",
            "type": "simpleText",
            "default": "",
            "multilang": true,
            "mandatory": true
        },
        {
            "var": "testo",
            "label": "Testo",
            "type": "mediumText",
            "default": "",
            "multilang": true,
            "mandatory": true
        },
        {
            "var": "logo",
            "label": "Logo",
            "type": "image",
            "dimensioni": "215x50",
            "types": [
                "png",
                "jpg",
                "gif",
                "jpeg"
            ],
            "multilang": false,
            "mandatory": false
        },
        {
            "var": "slide",
            "label": "Slide",
            "type": "image",
            "dimensioni": "500x350",
            "types": [
                "png",
                "jpg",
                "gif",
                "jpeg"
            ],
            "multilang": false,
            "mandatory": false
        }
    ]
}