{
    "codice": "BDS.1.0.0",
    "release": "1.0",
    "releaseDate": "2017-02-24",
    "descrizione": "Box doppio con slider sviluppato per ElmaViaggi",
    "author": "Giovanni Lenoci",
    "assets": {
        "css": [
            "/node_modules/slick-carousel/slick/slick.css",
            "/node_modules/slick-carousel/slick/slick-theme.css"
        ],
        "js": [
            "/node_modules/jquery-match-height/dist/jquery.matchHeight-min.js",
            "/node_modules/slick-carousel/slick/slick.min.js"
        ]
    }
}