{
    "codice": "BFB.1.0.0",
    "release": "1.0",
    "releaseDate": "2017-03-25",
    "descrizione": "Box flottante con 4 colonne",
    "author": "Giovanni Lenoci",
    "assets": {
        "css": [],
        "js": [
            "/node_modules/jquery-match-height/dist/jquery.matchHeight-min.js"
        ]
    }
}