{
    "nome": "boxTesto e Logo\/Icona in basso",
    "duplicabile": true,
    "backEnd": {
        "class": null,
        "method": ""
    },
    "config": [
        {
            "type": "mediumText",
            "multilang": true,
            "var": "titolo",
            "label": "Titolo",
            "mandatory": false,
            "help": "",
            "default": ""
        },
        {
            "type": "mediumText",
            "multilang": true,
            "var": "testo",
            "label": "Testo",
            "mandatory": false,
            "help": "",
            "default": "Inserisci Testo"
        },
        {
            "type": "image",
            "multilang": false,
            "var": "icona",
            "label": "Icona\/logo",
            "mandatory": false,
            "help": "",
            "default": "",
            "types": [
                "jpg",
                "png",
                "gif",
                "jpeg"
            ],
            "dimensioni": "250x100"
        }
    ]
}