{
    "nome": "Modulo con testo a destra e immagine a sinistra (cantina menegola)",
    "duplicabile": true,
    "config": [
        {
            "var": "titolo",
            "label": "Titolo",
            "type": "mediumText",
            "default": "",
            "multilang": true,
            "mandatory": true
        },
        {
            "var": "immagine",
            "label": "Immagine",
            "type": "image",
            "types": [
                "jpg",
                "png",
                "gif",
                "jpeg"
            ],
            "dimensioni": "500x800",
            "mandatory": true,
            "multilang": false
        }
    ]
}
