{
    "codice": "ST.2.0.0",
    "release": "1.0",
    "releaseDate": "2017-03-24",
    "author": "Giovanni Lenoci",
    "duplicabile": true,
    "descrizione": "Titolo, sottotitolo e testo",
    "assets": {
        "css": [
            "/node_modules/aos/dist/aos.css"
        ],
        "js": [
            "/node_modules/aos/dist/aos.js"
        ]
    }
}
