{
    "codice": "BN.2.0.0",
    "release": "1.0",
    "releaseDate": "2017-03-28",
    "descrizione": "Mostra 4 icone con etichette e valore ed eventualmente un'immagine di sfondo",
    "author": "Giovanni Lenoci"
}