{
    "codice": "TSPF.1.0.0",
    "release": "1.0",
    "releaseDate": "2017-03-27",
    "descrizione": "Semplice testo per footer (Cantina menegola)",
    "duplicabile": true,
    "author": "Nicola Saccucci"
}
