{
    "codice": "MDS.1.0.0",
    "release": "1.0",
    "releaseDate": "2017-02-22",
    "descrizione": "Modulo di esempio con diversi campi per illustrare tutti gli utilizzi possibili",
    "author": "Giovanni Lenoci"
}