{
    "nome": "Header con immagine al centro e sfondo fullpage",
    "duplicabile": true,
    "config": [
        {
            "var": "title1",
            "label": "Titolo 1",
            "type": "simpleText",
            "default": "",
            "multilang": true,
            "mandatory": true
        },
        {
            "var": "title2",
            "label": "Titolo 2",
            "type": "simpleText",
            "default": "",
            "multilang": true,
            "mandatory": true
        },
        {
            "var": "title3",
            "label": "Titolo 3",
            "type": "simpleText",
            "default": "",
            "multilang": true,
            "mandatory": false
        },
        {
            "var": "id_sezione",
            "label": "Id sezione sottostante",
            "type": "link",
            "default": "",
            "multilang": false,
            "mandatory": true
        },
        {
            "var": "img",
            "label": "Immagine",
            "type": "backgroundImage",
            "dimensioni": "1920x1080",
            "types": [
                "jpg",
                "png",
                "gif",
                "jpeg"
            ],
            "multilang": false,
            "mandatory": false
        }
    ]
}
