{
    "nome": "Carousel video e immagini",
    "duplicabile": true,
    "backEnd": {
        "class": null,
        "method": ""
    },
    "config": [
        {
            "type": "simpleText",
            "multilang": true,
            "var": "caption1",
            "label": "Titolo 1",
            "mandatory": false,
            "help": "",
            "default": "",
            "group": "titoli"
        },
        {
            "type": "simpleText",
            "multilang": true,
            "var": "caption2",
            "label": "Titolo 2",
            "mandatory": false,
            "help": "",
            "default": "",
            "group": "titoli"
        },
        {
            "type": "simpleText",
            "multilang": true,
            "var": "caption3",
            "label": "Titolo 3",
            "mandatory": false,
            "help": "",
            "default": "",
            "group": "titoli"
        },
        {
            "type": "simpleText",
            "multilang": true,
            "var": "caption4",
            "label": "Titolo 4",
            "mandatory": false,
            "help": "",
            "default": "",
            "group": "titoli"
        },
        {
            "type": "simpleText",
            "multilang": true,
            "var": "caption5",
            "label": "Titolo 5",
            "mandatory": false,
            "help": "",
            "default": "",
            "group": "titoli"
        },
        {
            "type": "mediumText",
            "multilang": true,
            "var": "testo1",
            "label": "Testo 1",
            "mandatory": false,
            "help": "",
            "default": "",
            "group": "testi"
        },
        {
            "type": "mediumText",
            "multilang": true,
            "var": "testo2",
            "label": "Testo2",
            "mandatory": false,
            "help": "",
            "default": "",
            "group": "testi"
        },
        {
            "type": "mediumText",
            "multilang": true,
            "var": "testo3",
            "label": "Testo 3",
            "mandatory": false,
            "help": "",
            "default": "",
            "group": "testi"
        },
        {
            "type": "mediumText",
            "multilang": true,
            "var": "testo4",
            "label": "Testo 4",
            "mandatory": false,
            "help": "",
            "default": "",
            "group": "testi"
        },
        {
            "type": "mediumText",
            "multilang": true,
            "var": "testo5",
            "label": "Testo 5",
            "mandatory": false,
            "help": "",
            "default": "",
            "group": "testi"
        },
        {
            "type": "image",
            "multilang": false,
            "var": "poster1",
            "label": "Poster 1",
            "mandatory": false,
            "help": "L'immagine verr\u00e0 usata come poster, in caso di presenza di un video verr\u00e0 mostrata fino al play del video",
            "default": "",
            "types": [
                "jpg",
                "png",
                "gif",
                "jpeg"
            ],
            "dimensioni": "300x200",
            "group": "immagini"
        },
        {
            "type": "image",
            "multilang": false,
            "var": "poster2",
            "label": "Poster 2",
            "mandatory": false,
            "help": "",
            "default": "",
            "types": [
                "jpg",
                "png",
                "gif",
                "jpeg"
            ],
            "dimensioni": "300x200",
            "group": "immagini"
        },
        {
            "type": "image",
            "multilang": false,
            "var": "poster3",
            "label": "Poster 3",
            "mandatory": false,
            "help": "",
            "default": "",
            "types": [
                "jpg",
                "png",
                "gif",
                "jpeg"
            ],
            "dimensioni": "300x200",
            "group": "immagini"
        },
        {
            "type": "image",
            "multilang": false,
            "var": "poster4",
            "label": "Poster 4",
            "mandatory": false,
            "help": "",
            "default": "",
            "types": [
                "jpg",
                "png",
                "gif",
                "jpeg"
            ],
            "dimensioni": "300x200",
            "group": "immagini"
        },
        {
            "type": "image",
            "multilang": false,
            "var": "poster5",
            "label": "Poster 5",
            "mandatory": false,
            "help": "",
            "default": "",
            "types": [
                "jpg",
                "png",
                "gif",
                "jpeg"
            ],
            "dimensioni": "300x200",
            "group": "immagini"
        },
        {
            "type": "file",
            "multilang": false,
            "var": "video1",
            "label": "Video 1",
            "mandatory": false,
            "help": "",
            "default": "",
            "group": "video",
            "types": [
                "mp4"
            ]
        },
        {
            "type": "file",
            "multilang": false,
            "var": "video2",
            "label": "Video 2",
            "mandatory": false,
            "help": "",
            "default": "",
            "group": "video",
            "types": [
                "mp4"
            ]
        },
        {
            "type": "file",
            "multilang": false,
            "var": "video3",
            "label": "Video 3",
            "mandatory": false,
            "help": "",
            "default": "",
            "group": "video",
            "types": [
                "mp4"
            ]
        },
        {
            "type": "file",
            "multilang": false,
            "var": "video4",
            "label": "Video 4",
            "mandatory": false,
            "help": "",
            "default": "",
            "group": "video",
            "types": [
                "mp4"
            ]
        },
        {
            "type": "file",
            "multilang": false,
            "var": "video5",
            "label": "Video 5",
            "mandatory": false,
            "help": "",
            "default": "",
            "group": "video",
            "types": [
                "mp4"
            ]
        }
    ]
}