{
    "codice": "TBTIR.1.0.0",
    "release": "1.0",
    "releaseDate": "2017-02-27",
    "descrizione": "Modulo con testo a sinistra e immagine a destra",
    "author": "Nicola Saccucci",
    "assets": {
        "css": [
            "/node_modules/aos/dist/aos.css"
        ],
        "js": [
            "/node_modules/aos/dist/aos.js",
            "/node_modules/jquery-match-height/dist/jquery.matchHeight-min.js"
        ]
    }
}
