{
    "nome": "Box flottante 4 blocchi",
    "duplicabile": true,
    "backEnd": {
        "class": null,
        "method": ""
    },
    "config": [
        {
            "type": "mediumText",
            "multilang": true,
            "var": "testo1",
            "label": "Testo Blocco 1",
            "mandatory": false,
            "help": "",
            "default": "",
            "group": "testi"
        },
        {
            "type": "mediumText",
            "multilang": true,
            "var": "testo2",
            "label": "Testo Blocco 2",
            "mandatory": false,
            "help": "",
            "default": "",
            "group": "testi"
        },
        {
            "type": "mediumText",
            "multilang": true,
            "var": "testo3",
            "label": "Testo Blocco 3",
            "mandatory": false,
            "help": "",
            "default": "",
            "group": "testi"
        },
        {
            "type": "mediumText",
            "multilang": true,
            "var": "testo4",
            "label": "Testo Blocco 4",
            "mandatory": false,
            "help": "",
            "default": "",
            "group": "testi"
        },
        {
            "type": "image",
            "multilang": false,
            "var": "image1",
            "label": "Immagine 1",
            "mandatory": false,
            "help": "",
            "default": "",
            "types": [
                "jpg",
                "png",
                "gif",
                "jpeg"
            ],
            "dimensioni": "300x200",
            "group": "immagini"
        },
        {
            "type": "image",
            "multilang": false,
            "var": "image2",
            "label": "Immagine 2",
            "mandatory": false,
            "help": "",
            "default": "",
            "types": [
                "jpg",
                "png",
                "gif",
                "jpeg"
            ],
            "dimensioni": "300x200",
            "group": "immagini"
        },
        {
            "type": "image",
            "multilang": false,
            "var": "image3",
            "label": "Immagine 3",
            "mandatory": false,
            "help": "",
            "default": "",
            "types": [
                "jpg",
                "png",
                "gif",
                "jpeg"
            ],
            "dimensioni": "300x200",
            "group": "immagini"
        },
        {
            "type": "image",
            "multilang": false,
            "var": "image4",
            "label": "Immagine 4",
            "mandatory": false,
            "help": "",
            "default": "",
            "types": [
                "jpg",
                "png",
                "gif",
                "jpeg"
            ],
            "dimensioni": "300x200",
            "group": "immagini"
        }
    ]
}