{
    "nome": "Citazione",
    "author": "Matteo Tognolini",
    "backEnd": {
        "class": "",
        "method": ""
    },
    "config": [
        {
            "var": "citazione",
            "label": "Citazione",
            "type": "mediumText",
            "default": "",
            "multilang": true,
            "mandatory": true
        },
        {
            "var": "quote_icon1",
            "label": "Icona Virgolette 1",
            "type": "image",
            "types": [
                "jpg",
                "png",
                "gif",
                "jpeg"
            ],
            "dimensioni": "70x60",
            "mandatory": true,
            "multilang": false
        },
        {
            "var": "quote_icon2",
            "label": "Icona Virgolette 2",
            "type": "image",
            "types": [
                "jpg",
                "png",
                "gif",
                "jpeg"
            ],
            "dimensioni": "70x60",
            "mandatory": true,
            "multilang": false
        }
    ]
}
