{
    "author": "Gabriele 'gabricom' Colombera",
    "nome": "Pulsante centrato",
    "duplicabile": true,
    "config": [
        {
            "var": "link",
            "label": "Titolo",
            "type": "link",
            "multilang": true,
            "mandatory": true
        }
    ]
}