{
    "nome": "Ecommerce - Ghebagas - Lista Prodotti di un BRAND",
    "duplicabile": true,
    "config": [],
    "author": "gabricom",
    "backEnd": {
        "class": "Webtek\\EcommerceBundle\\DataFormatter\\BrandFormatter",
        "method": "getProductsInController"
    }
}