{
    "nome": "Selettore Date",
    "duplicabile": true,
    "backEnd": {
        "class": "AppBundle\\DataFormatter\\SelettoreDateFormatter",
        "method": "getData"
    },
    "config": [
        {
            "var": "claim",
            "label": "Titoletto",
            "type": "simpleText",
            "default": "Prenota ora",
            "multilang": true,
            "mandatory": true
        },
        {
            "var": "icona",
            "label": "Icona",
            "type": "image",
            "dimensioni": "70x41",
            "types": [
                "jpg",
                "png",
                "gif",
                "jpeg"
            ],
            "multilang": false,
            "mandatory": false
        }
    ]
}