{
    "nome": "Google Map",
    "duplicabile": true,
    "backEnd": {
        "class": "",
        "method": ""
    },
    "config": [
        {
            "var": "puntatore",
            "label": "Immagine puntatore",
            "type": "backgroundImage",
            "default": "",
            "types": [
                "png",
                "jpg",
                "gif",
                "jpeg"
            ],
            "multilang": false,
            "mandatory": false
        },
        {
            "var": "coordinate",
            "label": "Coordinate",
            "type": "simpleText",
            "default": "46.1712915,9.9215253",
            "multilang": false,
            "mandatory": true
        },
        {
            "var": "zoom",
            "label": "Zoom",
            "type": "simpleText",
            "default": "10",
            "multilang": false,
            "mandatory": true
        },
        {
            "var": "style",
            "label": "Map Style",
            "type": "simpleTextarea",
            "default": "",
            "multilang": false,
            "mandatory": false
        },
        {
            "var": "testoFumetto",
            "label": "testo",
            "type": "mediumText",
            "default": "",
            "multilang": true,
            "mandatory": false
        }
    ]
}