{
    "nome": "Pagina di errore",
    "duplicabile": false,
    "backEnd": {
        "class": "\\AppBundle\\DataFormatter\\MenuFormatter",
        "method": "getData",
        "refetch": true
    },
    "config": [
        {
            "var": "logo",
            "label": "Logo del cliente",
            "dimensioni": "500x300",
            "tolerance": "20",
            "type": "image",
            "types": [
                "jpg",
                "png",
                "gif",
                "jpeg"
            ],
            "multilang": false,
            "mandatory": true
        },
        {
            "type": "simpleText",
            "multilang": false,
            "var": "level",
            "label": "Livello",
            "mandatory": true,
            "help": "",
            "default": "10"
        }
    ]
}