{
    "nome": "Vetrina Appartamenti",
    "duplicabile": true,
    "backEnd": {
        "class": "AppartamentiBundle\\DataFormatter\\AppartamentiServiziFormatter",
        "method": "getVetrina",
        "refetch": true
    },
    "config": [
        {
            "var": "servizi",
            "label": "Nome o id Servizio",
            "type": "simpleText",
            "default": "",
            "multilang": false,
            "mandatory": true
        },
        {
            "var": "icona1",
            "label": "Icona 1",
            "type": "image",
            "types": [
                "jpg",
                "png",
                "gif",
                "jpeg"
            ],
            "dimensioni": "56x61",
            "mandatory": false,
            "multilang": false
        },
        {
            "var": "icona2",
            "label": "Icona 2",
            "type": "image",
            "types": [
                "jpg",
                "png",
                "gif",
                "jpeg"
            ],
            "dimensioni": "56x61",
            "mandatory": false,
            "multilang": false
        },
        {
            "var": "icona3",
            "label": "Icona 3",
            "type": "image",
            "types": [
                "jpg",
                "png",
                "gif",
                "jpeg"
            ],
            "dimensioni": "56x61",
            "mandatory": false,
            "multilang": false
        },
        {
            "var": "icona4",
            "label": "Icona 4",
            "type": "image",
            "types": [
                "jpg",
                "png",
                "gif",
                "jpeg"
            ],
            "dimensioni": "56x61",
            "mandatory": false,
            "multilang": false
        },
        {
            "var": "immagineGrande",
            "label": "Immagine principale",
            "type": "image",
            "types": [
                "jpg",
                "png",
                "gif",
                "jpeg"
            ],
            "dimensioni": "800x533",
            "mandatory": true,
            "multilang": false
        },
        {
            "var": "iconaTesto",
            "label": "Icona sopra testo",
            "type": "image",
            "types": [
                "jpg",
                "png",
                "gif",
                "jpeg"
            ],
            "dimensioni": "800x533",
            "mandatory": true,
            "multilang": false
        },
        {
            "var": "titoloicona1",
            "label": "Titolo icona 1",
            "type": "simpleText",
            "default": "",
            "multilang": true,
            "mandatory": false
        },
        {
            "var": "titoloicona2",
            "label": "Titolo icona 2",
            "type": "simpleText",
            "default": "",
            "multilang": true,
            "mandatory": false
        },
        {
            "var": "titoloicona3",
            "label": "Titolo icona 3",
            "type": "simpleText",
            "default": "",
            "multilang": true,
            "mandatory": false
        },
        {
            "var": "titoloicona4",
            "label": "Titolo icona 4",
            "type": "simpleText",
            "default": "",
            "multilang": true,
            "mandatory": false
        },
        {
            "var": "testo",
            "label": "Testo",
            "type": "mediumText",
            "default": "",
            "multilang": true,
            "mandatory": false
        }
    ]
}