{
    "nome": "Ecommerce - Ghebagas - Lista Prodotti piu' venduti",
    "duplicabile": true,
    "config": [],
    "author": "gabricom",
    "backEnd": {
        "class": "Webtek\\EcommerceBundle\\DataFormatter\\AccountFormatter",
        "method": "getWishList"
    }
}