{
    "codice": "M.1.0.0",
    "release": "1.0",
    "releaseDate": "2017-02-07",
    "duplicabile": true,
    "descrizione": "Modulo per l'estrazione del menu a partire da un livello di appartenenza"
}