{
    "nome": "Menu Ancore Fullpage",
    "duplicabile": true,
    "backEnd": {
        "class": "AppBundle\\DataFormatter\\MenuFormatter",
        "method": "getFullpageAnchors",
        "refetch": true
    },
    "config": [
        {
            "var": "level",
            "label": "Livello",
            "type": "simpleText",
            "default": "10",
            "multilang": false,
            "mandatory": true
        }
    ]
}
