{
    "nome": "Slot Machine",
    "duplicabile": true,
    "backEnd": {
        "class": null,
        "method": ""
    },
    "config": [
        {
            "type": "simpleText",
            "multilang": true,
            "var": "titolo1",
            "label": "Titolo box 1",
            "mandatory": true,
            "help": "",
            "default": "",
            "group": "titoli"
        },
        {
            "type": "simpleText",
            "multilang": false,
            "var": "valore1",
            "label": "Valore box 1",
            "mandatory": true,
            "help": "",
            "default": "",
            "group": "valori"
        },
        {
            "type": "simpleText",
            "multilang": true,
            "var": "titolo2",
            "label": "Titolo box 2",
            "mandatory": true,
            "help": "",
            "default": "",
            "group": "titoli"
        },
        {
            "type": "simpleText",
            "multilang": false,
            "var": "valore2",
            "label": "Valore box 2",
            "mandatory": true,
            "help": "",
            "default": "",
            "group": "valori"
        },
        {
            "type": "simpleText",
            "multilang": true,
            "var": "titolo3",
            "label": "Titolo box 3",
            "mandatory": true,
            "help": "",
            "default": "",
            "group": "titoli"
        },
        {
            "type": "simpleText",
            "multilang": false,
            "var": "valore3",
            "label": "Valore box 3",
            "mandatory": true,
            "help": "",
            "default": "",
            "group": "valori"
        },
        {
            "type": "simpleText",
            "multilang": true,
            "var": "titolo4",
            "label": "Titolo box 4",
            "mandatory": true,
            "help": "",
            "default": "",
            "group": "titoli"
        },
        {
            "type": "simpleText",
            "multilang": false,
            "var": "valore4",
            "label": "Valore box 4",
            "mandatory": true,
            "help": "",
            "default": "",
            "group": "valori"
        },
        {
            "type": "image",
            "multilang": false,
            "var": "icona1",
            "label": "Icona 1",
            "mandatory": false,
            "help": "",
            "default": "",
            "group": "icone",
            "types": [
                "jpg",
                "png",
                "gif",
                "jpeg"
            ],
            "dimensioni": "300x200"
        },
        {
            "type": "image",
            "multilang": false,
            "var": "icona2",
            "label": "Icona 2",
            "mandatory": false,
            "help": "",
            "default": "",
            "group": "icone",
            "types": [
                "jpg",
                "png",
                "gif",
                "jpeg"
            ],
            "dimensioni": "300x200"
        },
        {
            "type": "image",
            "multilang": false,
            "var": "icona3",
            "label": "Icona 3",
            "mandatory": false,
            "help": "",
            "default": "",
            "group": "icone",
            "types": [
                "jpg",
                "png",
                "gif",
                "jpeg"
            ],
            "dimensioni": "300x200"
        },
        {
            "type": "image",
            "multilang": false,
            "var": "icona4",
            "label": "Icona 4",
            "mandatory": false,
            "help": "",
            "default": "",
            "group": "icone",
            "types": [
                "jpg",
                "png",
                "gif",
                "jpeg"
            ],
            "dimensioni": "300x200"
        }
    ]
}