{
    "nome": "Box Doppio Array",
    "duplicabile": true,
    "backEnd": {
        "class": "",
        "method": ""
    },
    "config": [
        {
            "var": "list",
            "type": "arrayOf",
            "inputs": [
                {
                    "var": "service",
                    "label": "Testo",
                    "type": "simpleText",
                    "default": "",
                    "multilang": true,
                    "mandatory": false
                },
                {
                    "var": "icon",
                    "label": "Icona",
                    "type": "backgroundImage",
                    "default": "",
                    "multilang": false,
                    "mandatory": false,
                    "dimensioni": "215x50",
                    "types": [
                        "png",
                        "jpg",
                        "gif",
                        "jpeg"
                    ]
                }
            ]
        }
    ]
}