{
    "nome": "Testo con effetto Parallax",
    "config": [
        {
            "var": "titolo",
            "label": "Titolo",
            "type": "simpleText",
            "multilang": true,
            "mandatory": true
        },
        {
            "var": "sottotitolo",
            "label": "Sottotitolo",
            "type": "simpleText",
            "multilang": true,
            "mandatory": false
        },
        {
            "var": "link",
            "label": "Bottone",
            "type": "link",
            "multilang": true,
            "mandatory": false
        },
        {
            "var": "img1",
            "label": "Immagine sfondo 1",
            "type": "backgroundImage",
            "dimensioni": "1920x1080",
            "multilang": false,
            "mandatory": false,
            "types": [
                "jpg",
                "jpeg",
                "png",
                "gif"
            ]
        },
        {
            "var": "img2",
            "label": "Icona",
            "type": "image",
            "dimensioni": "56x51",
            "multilang": false,
            "types": [
                "jpg",
                "jpeg",
                "png",
                "gif"
            ],
            "mandatory": false
        }
    ]
}
