{
    "nome": "Titolo e testo centrati (Cantina Menegola)",
    "duplicabile": true,
    "config": [
        {
            "var": "titolo",
            "label": "Titolo",
            "type": "mediumText",
            "default": "",
            "multilang": true,
            "mandatory": true
        },
        {
            "var": "img_freccia",
            "label": "Immagine freccia",
            "type": "image",
            "types": [
                "jpg",
                "png",
                "gif",
                "jpeg"
            ],
            "multilang": false,
            "mandatory": false
        },
        {
            "var": "testo",
            "label": "Testo",
            "type": "mediumText",
            "default": "",
            "multilang": true,
            "mandatory": true
        },
        {
            "var": "link1",
            "label": "Link 1",
            "type": "link",
            "multilang": true,
            "mandatory": true
        }
    ]
}
