{
    "codice": "TCSLEIDS.1.0.0",
    "release": "1.0",
    "releaseDate": "2017-03-23",
    "descrizione": "Mostra un'immagine come sfondo in parallax, uno slogan formato da titolo e testo e un bottone",
    "author": "Giovanni Lenoci"
}