{
    "nome": "Box triplo icone",
    "duplicabile": true,
    "backEnd": {
        "class": null,
        "method": ""
    },
    "config": [
        {
            "type": "simpleText",
            "multilang": true,
            "var": "titolo",
            "label": "Titolo",
            "mandatory": true,
            "help": "",
            "default": ""
        },
        {
            "type": "simpleText",
            "multilang": true,
            "var": "sottotitolo",
            "label": "Sottotitolo",
            "mandatory": false,
            "help": "",
            "default": ""
        },
        {
            "type": "simpleText",
            "multilang": true,
            "var": "paragrafo",
            "label": "Paragrafo",
            "mandatory": false,
            "help": "",
            "default": ""
        },
        {
            "type": "simpleText",
            "multilang": true,
            "var": "titolo1",
            "label": "Titolo box1",
            "mandatory": false,
            "help": "",
            "default": ""
        },
        {
            "type": "simpleText",
            "multilang": true,
            "var": "titolo2",
            "label": "Titolo box2",
            "mandatory": false,
            "help": "",
            "default": ""
        },
        {
            "type": "simpleText",
            "multilang": true,
            "var": "sdf",
            "label": "dfg",
            "mandatory": false,
            "help": "",
            "default": ""
        },
        {
            "type": "link",
            "multilang": true,
            "var": "link1",
            "label": "Link 1",
            "mandatory": false,
            "help": "",
            "default": ""
        },
        {
            "type": "link",
            "multilang": true,
            "var": "link2",
            "label": "Link 2",
            "mandatory": false,
            "help": "",
            "default": ""
        },
        {
            "type": "image",
            "multilang": false,
            "var": "icona1",
            "label": "Icona 1",
            "mandatory": false,
            "help": "",
            "default": "",
            "types": [
                "jpg",
                "png",
                "gif",
                "jpeg"
            ],
            "dimensioni": "300x200"
        },
        {
            "type": "image",
            "multilang": false,
            "var": "icona2",
            "label": "Icona 2",
            "mandatory": false,
            "help": "",
            "default": "",
            "types": [
                "jpg",
                "png",
                "gif",
                "jpeg"
            ],
            "dimensioni": "300x200"
        },
        {
            "type": "image",
            "multilang": false,
            "var": "bgimg1",
            "label": "Background image 1",
            "mandatory": false,
            "help": "",
            "default": "",
            "types": [
                "jpg",
                "png",
                "gif",
                "jpeg"
            ],
            "dimensioni": "300x200"
        },
        {
            "type": "image",
            "multilang": false,
            "var": "bgimg2",
            "label": "Background image 2",
            "mandatory": false,
            "help": "",
            "default": "",
            "types": [
                "jpg",
                "png",
                "gif",
                "jpeg"
            ],
            "dimensioni": "300x200"
        }
    ]
}