{
    "codice": "BU.2.0.0",
    "release": "1.0",
    "releaseDate": "2017-02-27",
    "descrizione": "Ultime news - 4 blocchi - Webtek Style",
    "author": "Gabriele Colombera",
    "assets": {
        "css": [
        ],
        "js": [
            "/node_modules/jquery-match-height/dist/jquery.matchHeight-min.js",
            "/node_modules/object-fit-images/dist/ofi.min.js"
        ]
    }
}