{
    "codice": "BDSS.2.0.0",
    "release": "1.0",
    "releaseDate": "2017-03-02",
    "descrizione": "Box Doppio Slider con servizi a comparsa con aos e immagini sulla lsinistra",
    "author": "Giovanni Lenoci",
    "assets": {
        "css": [
            "/public/lib/fotorama/fotorama.css"
        ],
        "js": [
            "/public/lib/fotorama/fotorama.js"
        ]
    }
}