{
    "nome": "Titolo, sottotitolo e testo",
    "author": "nicolawebtek",
    "duplicabile": true,
    "backEnd": {
        "class": "",
        "method": ""
    },
    "config": [
        {
            "var": "id_sezione",
            "label": "Id sezione",
            "allow_add": true,
            "type": "simpleText",
            "default": "",
            "multilang": false,
            "mandatory": false
        }
    ]
}
