{
    "nome": "Blog Gallery",
    "duplicabile": true,
    "backEnd": {
        "class": "AppBundle\\DataFormatter\\AttachmentFormatter",
        "method": "getData"
    },
    "config": [
        {
            "var": "title",
            "label": "Titolo",
            "type": "simpleText",
            "default": "Gallery",
            "multilang": true,
            "mandatory": false
        }
    ]
}