{
    "codice": "TCWHT.1.0.0",
    "release": "1.0",
    "releaseDate": "2017-02-12",
    "nome": "Tre colonne con testo e titolo",
    "duplicabile": true,
    "author": "gabricom",
    "descrizione": "Tre colonne con testo e titolo",
    "backEnd": {
        "class": "",
        "method": ""
    },
    "assets": {
        "css": [
            "/node_modules/aos/dist/aos.css"
        ],
        "js": [
            "/node_modules/aos/dist/aos.js",
            "/node_modules/jquery-match-height/dist/jquery.matchHeight-min.js"
        ]
    },
    "config": [
        {
            "var": "id_sezione",
            "label": "Id sezione",
            "type": "simpleText",
            "default": "",
            "multilang": true,
            "mandatory": true
        },
        {
            "var": "titolo1",
            "label": "Titolo 1",
            "type": "simpleText",
            "default": "",
            "multilang": true,
            "mandatory": true
        },
        {
            "var": "testo1",
            "label": "Testo 1",
            "type": "mediumText",
            "default": "",
            "multilang": true,
            "mandatory": true
        },
        {
            "var": "titolo2",
            "label": "Titolo 2",
            "type": "simpleText",
            "default": "",
            "multilang": true,
            "mandatory": true
        },
        {
            "var": "testo2",
            "label": "Testo 2",
            "type": "mediumText",
            "default": "",
            "multilang": true,
            "mandatory": true
        },
        {
            "var": "titolo3",
            "label": "Titolo 3",
            "type": "simpleText",
            "default": "",
            "multilang": true,
            "mandatory": true
        },
        {
            "var": "testo3",
            "label": "Testo 3",
            "type": "mediumText",
            "default": "",
            "multilang": true,
            "mandatory": true
        }
    ]
}
