{
    "codice": "BG.1.0.0",
    "release": "1.0",
    "releaseDate": "2017 -02 -28",
    "descrizione": "Estrazione dell'elenco di immagini da mostrare in uno slider",
    "author": "Giovanni Lenoci",
    "assets": {
        "css": [
            "/node_modules/slick-carousel/slick/slick.css",
            "/node_modules/slick-carousel/slick/slick-theme.css",
            "/node_modules/slick-lightbox/dist/slick-lightbox.css"
        ],
        "js": [
            "/node_modules/slick-carousel/slick/slick.min.js",
            "/node_modules/slick-lightbox/dist/slick-lightbox.min.js"
        ]
    }
}