{
    "nome": "Prova",
    "duplicabile": true,
    "config": [
        {
            "var": "img1",
            "label": "Immagine1",
            "type": "image",
            "dimensioni": "500x500",
            "types": [
                "jpg",
                "png",
                "gif",
                "jpeg"
            ],
            "multilang": false,
            "mandatory": true
        },
        {
            "var": "img2",
            "label": "Immagine2",
            "type": "image",
            "dimensioni": "500x500",
            "types": [
                "jpg",
                "png",
                "gif",
                "jpeg"
            ],
            "multilang": false,
            "mandatory": true
        },
        {
            "var": "imglat",
            "label": "Immagine Laterale",
            "type": "image",
            "dimensioni": "60x600",
            "types": [
                "jpg",
                "png",
                "gif",
                "jpeg"
            ],
            "multilang": false,
            "mandatory": true
        },
        {
            "var": "titolo",
            "label": "Titolo",
            "type": "mediumText",
            "multilang": true,
            "mandatory": false
        },
        {
            "var": "testo",
            "label": "Testo",
            "type": "mediumText",
            "multilang": true,
            "mandatory": true
        }
    ]
}