{
    "codice": "BU.1.0.0",
    "release": "1.0",
    "releaseDate": "2017-03-02",
    "descrizione": "Estrazione delle ultime N news",
    "author": "Giovanni Lenoci",
    "assets": {
        "css": [
            "/node_modules/aos/dist/aos.css"
        ],
        "js": [
            "/node_modules/aos/dist/aos.js",
            "/node_modules/jquery-match-height/dist/jquery.matchHeight-min.js"
        ]
    }
}