{
    "nome": "Tre Icone Tre Testi Tre Link",
    "duplicabile": true,
    "backEnd": {
        "class": "",
        "method": ""
    },
    "config": [
        {
            "var": "testo1",
            "label": "Testo 1",
            "type": "simpleText",
            "default": "Titolo",
            "multilang": true,
            "mandatory": true
        },
        {
            "var": "testo2",
            "label": "Testo 2",
            "type": "simpleText",
            "default": "Testo",
            "multilang": true,
            "mandatory": false
        },
        {
            "var": "testo3",
            "label": "Testo 3",
            "type": "simpleText",
            "default": "Testo",
            "multilang": true,
            "mandatory": false
        },
        {
            "var": "link1",
            "label": "Link 1",
            "type": "link",
            "default": "",
            "multilang": false,
            "mandatory": false
        },
        {
            "var": "link2",
            "label": "Link 2",
            "type": "link",
            "default": "",
            "multilang": false,
            "mandatory": false
        },
        {
            "var": "link3",
            "label": "Link 3",
            "type": "link",
            "default": "",
            "multilang": false,
            "mandatory": false
        },
        {
            "var": "immagine1",
            "label": "Immagine 1",
            "type": "image",
            "dimensioni": "40x40",
            "types": [
                "png",
                "jpg",
                "gif",
                "jpeg"
            ],
            "multilang": false,
            "mandatory": false
        },
        {
            "var": "immagine2",
            "label": "Immagine 2",
            "type": "image",
            "dimensioni": "40x40",
            "types": [
                "png",
                "jpg",
                "gif",
                "jpeg"
            ],
            "multilang": false,
            "mandatory": false
        },
        {
            "var": "immagine3",
            "label": "Immagine 3",
            "type": "image",
            "dimensioni": "40x40",
            "types": [
                "png",
                "jpg",
                "gif",
                "jpeg"
            ],
            "multilang": false,
            "mandatory": false
        }
    ]
}