{
    "codice": "TT6QWI.1.0.0",
    "release": "1.0",
    "releaseDate": "2017-03-21",
    "duplicabile": true,
    "descrizione": "Titolo , testo , 6 blocchi quadrati con effetto hover, immagine e titolo",
    "assets": {
        "css": [
            "/node_modules/aos/dist/aos.css"
        ],
        "js": [
            "/node_modules/object-fit-images/dist/ofi.min.js",
            "/node_modules/aos/dist/aos.js"
        ]
    }
}