{
    "codice": "BDLT.1.0.0",
    "release": "1.0",
    "releaseDate": "2017-02-16",
    "nome": "Box Doppio e Lista",
    "duplicabile": true,
    "descrizione": "Box doppio con lista puntata a sx, titolo e testo a dx.",
    "author": "Matteo",
    "backEnd": {
        "class": "",
        "method": ""
    },
    "assets": {
        "css": [
            "/node_modules/aos/dist/aos.css"
        ],
        "js": [
            "/node_modules/aos/dist/aos.js",
            "/node_modules/jquery-match-height/dist/jquery.matchHeight-min.js"
        ]
    },
    "config": [
        {
            "var": "id_sezione",
            "label": "Id sezione",
            "type": "simpleText",
            "default": "",
            "multilang": true,
            "mandatory": true
        },
        {
            "var": "titolo_box1",
            "label": "Titolo Box SX",
            "type": "mediumText",
            "default": "",
            "multilang": true,
            "mandatory": true
        },
        {
            "var": "titolo_box2",
            "label": "Titolo Box DX",
            "type": "mediumText",
            "default": "",
            "multilang": true,
            "mandatory": false
        },
        {
            "var": "lista",
            "label": "Lista Box SX (inserire elemento lista)",
            "type": "mediumText",
            "default": "",
            "multilang": true,
            "mandatory": true
        },
        {
            "var": "testo_box2",
            "label": "Testo Box DX",
            "type": "mediumText",
            "default": "",
            "multilang": true,
            "mandatory": true
        },
        {
            "var": "text_color1",
            "label": "Colore di Testo Box SX",
            "type": "simpleText",
            "default": "#ffffff",
            "multilang": false,
            "mandatory": true
        },
        {
            "var": "bg_color1",
            "label": "Colore di Sfondo Box SX",
            "type": "simpleText",
            "default": "#ffffff",
            "multilang": false,
            "mandatory": true
        },
        {
            "var": "text_color2",
            "label": "Colore di Testo Box DX",
            "type": "simpleText",
            "default": "#ffffff",
            "multilang": false,
            "mandatory": true
        },
        {
            "var": "bg_color2",
            "label": "Colore di Sfondo Box DX",
            "type": "simpleText",
            "default": "#ffffff",
            "multilang": false,
            "mandatory": true
        }
    ]
}
