{
    "codice": "TCITT.1.0.0",
    "release": "1.0",
    "releaseDate": "2017-02-12",
    "nome": "Tre colonne con icone, testo e titolo",
    "duplicabile": true,
    "author": "gabricom",
    "descrizione": "Tre colonne con icone , testo e titolo",
    "backEnd": {
        "class": "",
        "method": ""
    },
    "assets": {
        "css": [
            "/node_modules/aos/dist/aos.css"
        ],
        "js": [
            "/node_modules/aos/dist/aos.js",
            "/node_modules/jquery-match-height/dist/jquery.matchHeight-min.js"
        ]
    },
    "config": [
        {
            "var": "icona1",
            "label": "Icona 1",
            "type": "image",
            "types": [
                "jpg",
                "png",
                "gif",
                "jpeg"
            ],
            "dimensioni": "40x37",
            "mandatory": true,
            "multilang": false
        },
        {
            "var": "titolo1",
            "label": "Titolo 1",
            "type": "simpleText",
            "default": "",
            "multilang": true,
            "mandatory": true
        },
        {
            "var": "testo1",
            "label": "Testo 1",
            "type": "mediumText",
            "default": "",
            "multilang": true,
            "mandatory": true
        },
        {
            "var": "titolo2",
            "label": "Titolo 2",
            "type": "simpleText",
            "default": "",
            "multilang": true,
            "mandatory": true
        },
        {
            "var": "icona2",
            "label": "Icona 2",
            "type": "image",
            "types": [
                "jpg",
                "png",
                "gif",
                "jpeg"
            ],
            "dimensioni": "40x37",
            "mandatory": true,
            "multilang": false
        },
        {
            "var": "testo2",
            "label": "Testo 2",
            "type": "mediumText",
            "default": "",
            "multilang": true,
            "mandatory": true
        },
        {
            "var": "icona3",
            "label": "Icona 3",
            "type": "image",
            "types": [
                "jpg",
                "png",
                "gif",
                "jpeg"
            ],
            "dimensioni": "40x37",
            "mandatory": true,
            "multilang": false
        },
        {
            "var": "titolo3",
            "label": "Titolo 3",
            "type": "simpleText",
            "default": "",
            "multilang": true,
            "mandatory": true
        },
        {
            "var": "testo3",
            "label": "Testo 3",
            "type": "mediumText",
            "default": "",
            "multilang": true,
            "mandatory": true
        }
    ]
}
