{
    "nome": "Header Background Img con Icona\/Logo",
    "duplicabile": true,
    "backEnd": {
        "class": null,
        "method": ""
    },
    "config": [
        {
            "type": "mediumText",
            "multilang": true,
            "var": "titolo",
            "label": "titolo",
            "mandatory": true,
            "help": "",
            "default": "Titolo"
        },
        {
            "type": "mediumText",
            "multilang": true,
            "var": "sottotitolo",
            "label": "sottotitolo",
            "mandatory": true,
            "help": "",
            "default": "sottotitolo"
        },
        {
            "type": "link",
            "multilang": false,
            "var": "link_scroll",
            "label": "Link per scroll",
            "mandatory": false,
            "help": "",
            "default": ""
        },
        {
            "type": "image",
            "multilang": false,
            "var": "logo_icona",
            "label": "Logo \/ Icona",
            "mandatory": false,
            "help": "",
            "default": "",
            "types": [
                "jpg",
                "png",
                "gif",
                "jpeg"
            ],
            "dimensioni": "250x100"
        },
        {
            "type": "image",
            "multilang": false,
            "var": "freccia_img_scroll",
            "label": "Immagine Freccia",
            "mandatory": false,
            "help": "",
            "default": "",
            "types": [
                "jpg",
                "png",
                "gif",
                "jpeg"
            ],
            "dimensioni": "50x50"
        },
        {
            "type": "backgroundImage",
            "multilang": false,
            "var": "background_img",
            "label": "Immagine di Sfondo",
            "mandatory": true,
            "help": "",
            "default": "",
            "types": [
                "jpg",
                "png",
                "gif",
                "jpeg"
            ],
            "dimensioni": "1920x1080"
        },
        {
            "type": "backgroundImage",
            "multilang": false,
            "var": "barra_ornamento",
            "label": "Immagine Barra Inferiore Ornamento",
            "mandatory": false,
            "help": "",
            "default": "",
            "types": [
                "jpg",
                "png",
                "gif",
                "jpeg"
            ],
            "dimensioni": "1920x150"
        }
    ]
}
