{
    "codice": "SLC.1.0.0",
    "release": "1.0",
    "releaseDate": "2017-05-25",
    "nome": "Slider centrato",
    "descrizione": "Slider centered 3 slide e slide al centro evidenziata , realizzato per Le Alpi e Pedranzini",
    "author": "Gabriele E Matteo",
    "assets": {
        "css": [
            "/node_modules/slick-carousel/slick/slick.css",
            "/node_modules/slick-carousel/slick/slick-theme.css"
        ],
        "js": [
            "/node_modules/slick-carousel/slick/slick.min.js"
        ]
    }
}
