{
    "nome": "Ecommerce  - Modulo condizioni di vendita",
    "duplicabile": true,
    "config": [
    ],
    "backEnd": {
        "class": "\\Webtek\\EcommerceBundle\\DataFormatter\\SetupFormatter",
        "method": "getCondizioniVendita"
    },
    "author": "gabricom"
}