{
    "codice": "BFP.1.0.0",
    "release": "1.0",
    "releaseDate": "2017-02-15",
    "nome": "Modulo Flipbook da vetrina",
    "descrizione": "Modulo per la creazione di uno slider con effetto libro ciascuna contenente una imamgine di background, titolo, sottotitolo e testo",
    "duplicabile": true,
    "backEnd": {
        "class": "AppBundle\\DataFormatter\\VetrinaFormatter",
        "method": "getData"
    },
    "assets": {
        "css": [
            "/public/lib/BookBlock/css/bookblock.css"
        ],
        "js": [
            "/public/lib/BookBlock/js/modernizr.custom.js",
            "/public/lib/BookBlock/js/jquerypp.custom.js",
            "/public/lib/BookBlock/js/jquery.bookblock.js"
        ]
    },
    "config": [
        {
            "var": "category",
            "label": "Nome Categoria",
            "type": "simpleText",
            "multilang": false,
            "mandatory": true
        },
        {
            "var": "freccia_sx",
            "label": "Freccia sinistra",
            "type": "image",
            "types": [
                "jpg",
                "png",
                "gif",
                "jpeg"
            ],
            "dimensioni": "46x46",
            "mandatory": true,
            "multilang": false
        },
        {
            "var": "freccia_dx",
            "label": "Freccia destra",
            "type": "image",
            "types": [
                "jpg",
                "png",
                "gif",
                "jpeg"
            ],
            "dimensioni": "46x46",
            "mandatory": true,
            "multilang": false
        },
        {
            "var": "freccia_up",
            "label": "Freccia su",
            "type": "image",
            "types": [
                "jpg",
                "png",
                "gif",
                "jpeg"
            ],
            "dimensioni": "46x46",
            "mandatory": true,
            "multilang": false
        },
        {
            "var": "freccia_down",
            "label": "Freccia giù",
            "type": "image",
            "types": [
                "jpg",
                "png",
                "gif",
                "jpeg"
            ],
            "dimensioni": "46x46",
            "mandatory": true,
            "multilang": false
        }
    ]
}
