{
    "codice": "HII.1.0.0",
    "release": "1.0",
    "releaseDate": "2017-05-26",
    "descrizione": "Modulo per l'estrazione di un header a partire dai dati della pagina visitata , versione di pedranzini con immagine bottom per ritaglio grafico , si puo' anche aggiungere un immagine con link associato",
    "duplicabile": true
}