{
    "codice": "SIXSQUARESROW.2.0.0",
    "release": "1.0",
    "releaseDate": "2017-07-24",
    "descrizione": "Modulo Elenco Marche - Visualizzazione di tutti i brand  ",
    "author": "gabricom",
    "assets": {
    }
}