{
    "codice": "4IMGLINKS.1.0.0",
    "release": "1.0",
    "releaseDate": "2017-05-26",
    "nome": "Quattro colonne affiancate con link e img",
    "descrizione": "Quattro colonne affiancate con immagini e link sotto",
    "author": "Gabriele",
    "assets": {
    }
}
