{
    "author": "Gabriele gabricom Colombera",
    "nome": "Menu Dropdown",
    "duplicabile": true,
    "backEnd": {
        "class": "AppBundle\\DataFormatter\\MenuFormatter",
        "method": "getTreeDataWithDisabled"
    },
    "config": [
        {
            "var": "level",
            "label": "Livello",
            "type": "simpleText",
            "default": "10",
            "multilang": false,
            "mandatory": true
        },
        {
            "var": "logo",
            "label": "Logo",
            "type": "image",
            "dimensioni": "120x64",
            "types": [
                "png",
                "jpg",
                "gif",
                "jpeg"
            ],
            "multilang": false,
            "mandatory": false
        },
        {
            "var": "img_menu",
            "label": "immagine sfondo menu'",
            "type": "image",
            "dimensioni": "126x88",
            "types": [
                "png",
                "jpg",
                "gif",
                "jpeg"
            ],
            "multilang": false,
            "mandatory": true
        },
        {
            "var": "logo_scroll",
            "label": "Logo dopo scroll",
            "type": "image",
            "dimensioni": "120x64",
            "types": [
                "png",
                "jpg",
                "gif",
                "jpeg"
            ],
            "multilang": false,
            "mandatory": false
        },
        {
            "var": "versione_blog",
            "label": "Versione blog",
            "default": false,
            "type": "boolean",
            "multilang": false,
            "mandatory": true
        }
    ]
}