{
    "codice": "STTG.1.0.0",
    "release": "1.0",
    "author": "Gabriele 'gabricom' Colombera",
    "releaseDate": "2017-03-22",
    "duplicabile": true,
    "descrizione": "Slider su due blocchi con a fianco titolo e testo. Le foto possono essere aperte fullscreen. Fatto inizialmente per Gema System",
    "assets": {
        "css": [
            "/node_modules/slick-carousel/slick/slick.css",
            "/node_modules/slick-carousel/slick/slick-theme.css",
            "/node_modules/lightbox2/dist/css/lightbox.min.css",
            "/node_modules/aos/dist/aos.css"
        ],
        "js": [
            "/node_modules/slick-carousel/slick/slick.min.js",
            "/node_modules/object-fit-images/dist/ofi.min.js",
            "/node_modules/jquery-match-height/dist/jquery.matchHeight-min.js",
            "/node_modules/lightbox2/dist/js/lightbox.min.js",
            "/node_modules/aos/dist/aos.js"
        ]
    }
}