{
    "nome": "",
    "duplicabile": true,
    "backEnd": {
        "class": "AppBundle\\DataFormatter\\BlogFormatter",
        "method": "getLastBlogPost"
    },
    "config": [
        {
            "var": "quante",
            "label": "Quante",
            "type": "simpleText",
            "default": "4",
            "multilang": false,
            "mandatory": true
        },
        {
            "var": "titolo",
            "label": "Titolo",
            "type": "simpleText",
            "default": "Titolo",
            "multilang": true,
            "mandatory": true
        },
        {
            "var": "testo",
            "label": "Testo",
            "type": "mediumText",
            "multilang": true,
            "mandatory": true
        },
        {
            "var": "img_box",
            "label": "Immagine box",
            "type": "image",
            "types": [
                "jpg",
                "png",
                "gif",
                "jpeg"
            ],
            "dimensioni": "955x73",
            "mandatory": true,
            "multilang": false
        },
        {
            "var": "icon_box",
            "label": "Icona box",
            "type": "image",
            "types": [
                "jpg",
                "png",
                "gif",
                "jpeg"
            ],
            "dimensioni": "33x47",
            "mandatory": true,
            "multilang": false
        }
    ]
}