{
    "nome": "Modulo header con slider e tre link di collegamento",
    "duplicabile": false,
    "backEnd": {
        "class": "AppBundle\\DataFormatter\\VetrinaFormatter",
        "method": "getData"
    },
    "config": [
        {
            "var": "category",
            "label": "Categoria",
            "type": "simpleText",
            "default": "default",
            "multilang": false,
            "mandatory": true
        },
        {
            "var": "link1_img",
            "label": "Link immagine 1",
            "type": "image",
            "dimensioni": "347x118",
            "types": [
                "png",
                "jpg",
                "gif",
                "jpeg"
            ],
            "multilang": true,
            "mandatory": false
        },
        {
            "var": "link2_img",
            "label": "Link immagine 2",
            "type": "image",
            "dimensioni": "347x118",
            "types": [
                "png",
                "jpg",
                "gif",
                "jpeg"
            ],
            "multilang": true,
            "mandatory": true
        },
        {
            "var": "link3_img",
            "label": "Link immagine 3",
            "type": "image",
            "dimensioni": "347x118",
            "types": [
                "png",
                "jpg",
                "gif",
                "jpeg"
            ],
            "multilang": true,
            "mandatory": true
        },
        {
            "var": "link1",
            "label": "Link 1",
            "type": "link",
            "default": "",
            "multilang": false,
            "mandatory": true
        },
        {
            "var": "link2",
            "label": "Link 2",
            "type": "link",
            "default": "",
            "multilang": false,
            "mandatory": true
        },
        {
            "var": "link3",
            "label": "Link 3",
            "type": "link",
            "default": "",
            "multilang": false,
            "mandatory": true
        },
        {
            "var": "imgRitaglio",
            "label": "Immagine ritaglio",
            "type": "image",
            "dimensioni": "1920x67",
            "types": [
                "png",
                "jpg",
                "gif",
                "jpeg"
            ],
            "multilang": false,
            "mandatory": false
        }
    ]
}
