{
    "nome": "Titolo sottotitolo e link",
    "duplicabile": true,
    "config": [
        {
            "var": "titolo",
            "label": "Titolo",
            "type": "simpleText",
            "default": "",
            "multilang": true,
            "mandatory": true
        },
        {
            "var": "sottotitolo",
            "label": "Testo",
            "type": "simpleText",
            "default": "",
            "multilang": true,
            "mandatory": false
        },
        {
            "var": "link1",
            "label": "Link 1",
            "type": "link",
            "default": "",
            "multilang": true,
            "mandatory": false
        }
    ]
}